----------------------------------------------- 2018-09-19 22:53:57.131853
UDP message sent (689 bytes):

INVITE sip:+15552221214@172.22.43.180:7979;user=phone SIP/2.0
Via: SIP/2.0/UDP 172.22.23.173:9090;branch=z9hG4bK-3580-1-0
From: test_artifacts <sip:+16304147970@172.22.23.173:9090;user=phone>;tag=3580SIPpTag001
To: +15552221214 <sip:+15552221214@172.22.43.180:7979;user=phone>
Call-ID: 1-3580@172.22.23.173
CSeq: 1 INVITE
Contact: <sip:+16304147970@172.22.23.173:9090>
P-Asserted-Identity: "PAI" <sip:+16304147970@172.22.23.173:9090;user=phone>
Max-Forwards: 70
Subject: test_artifacts
Content-Type: application/sdp
Content-Length:   137

v=0
o=user1 53655765 2353687637 IN IP4 172.22.23.173
s=-
c=IN IP4 172.22.23.173
t=0 0
m=audio 6000 RTP/AVP 0
a=rtpmap:0 PCMU/8000

----------------------------------------------- 2018-09-19 22:53:57.134931
UDP message received [483] bytes :

SIP/2.0 302 Moved Temporarily
Via: SIP/2.0/UDP 172.22.23.173:9090;branch=z9hG4bK-3580-1-0
From: test_artifacts <sip:+16304147970@172.22.23.173:9090;user=phone>;tag=3580SIPpTag001
To: +15552221214 <sip:+15552221214@172.22.43.180:7979;user=phone>;tag=5H6XMCASy5KXZ50w
Call-ID: 1-3580@172.22.23.173
P-Asserted-Identity: "PAI" <sip:+16304147970@172.22.23.173:9090;user=phone>
Contact: <sip:+15552221214@172.22.43.180:7979;user=phone;enum=yes>
CSeq: 1 INVITE
Content-Length: 0


----------------------------------------------- 2018-09-19 22:53:57.135085
UDP message sent (429 bytes):

ACK sip:+15552221214@172.22.43.180:7979;user=phone SIP/2.0
Via: SIP/2.0/UDP 172.22.23.173:9090;branch=z9hG4bK-3580-1-0
From: test_artifacts <sip:+16304147970@172.22.23.173:9090;user=phone>;tag=3580SIPpTag001
To: +15552221214 <sip:+15552221214@172.22.43.180:7979;user=phone>;tag=5H6XMCASy5KXZ50w
Call-ID: 1-3580@172.22.23.173
CSeq: 1 ACK
Contact: <sip:16304147970@172.22.23.173:9090>
Max-Forwards: 70
Content-Length: 0


