curl -s -i -X POST -H "Content-Type: application/xml" -H "Accept: application/xml" http://172.22.43.180:8080/firstorion.com/msgScreening/v1/screening -d'<?xml version="1.0" encoding="UTF-8"?><tpc:msgEventNotification xmlns:tpc="urn:oma:xml:rest:netapi:msgScreening:1"><callSessionIdentifier>123456-1547766590</callSessionIdentifier><calledParticipant>tel:+16302101980</calledParticipant><callingParticipant>tel:+11212121213</callingParticipant><addressDirection>Called</addressDirection><serviceKey>SMS</serviceKey><flavors><pnb/></flavors></tpc:msgEventNotification>'
HTTP/1.1 200 OK
Date: Thu, 17 Jan 2019 23:09:51 GMT
Content-Type: application/xml
Content-Length: 509

<?xml version="1.0" encoding="UTF-8"?> 
<tpc:msgEventNotification xmlns:tpc="urn:oma:xml:rest:netapi:msgScreening:1"> 
  <callSessionIdentifier>123456-1547766590</callSessionIdentifier>
  <calledParticipant>tel:+16302101980</calledParticipant>
  <callingParticipant>tel:+11212121213</callingParticipant>
  <addressDirection>Called</addressDirection>
  <serviceKey>SMS</serviceKey>
  <flavors>
    <pnb/>
  </flavors>
  <action>Reject</action>
  <reasonCode>UserRule:</reasonCode>
</tpc:msgEventNotification> 
