curl -s -i -X POST -H "Content-Type: application/xml" -H "Accept: application/xml" http://172.22.43.180:8080/firstorion.com/callScreening/v1/callScreening -d'<?xml version="1.0" encoding="UTF-8"?><tpc:callEventNotification xmlns:tpc="urn:oma:xml:rest:netapi:callScreening:1"><callSessionIdentifier>12345-1547766300</callSessionIdentifier><callingParticipant>tel:+16303060003</callingParticipant><calledParticipant>tel:+16304147970</calledParticipant><addressDirection>Called</addressDirection><flavors><pnb/></flavors></tpc:callEventNotification>'
HTTP/1.1 200 OK
Date: Thu, 17 Jan 2019 23:05:01 GMT
Content-Type: application/xml
Content-Length: 399

<?xml version="1.0" encoding="UTF-8"?> 
<tpc:callEventNotification xmlns:tpc="urn:oma:xml:rest:netapi:callScreening:1"> 
<callSessionIdentifier>12345-1547766300</callSessionIdentifier>
<calledParticipant>tel:+16304147970</calledParticipant>
<callingParticipant>tel:+16303060003</callingParticipant>
<addressDirection>Called</addressDirection>
<action>Continue</action>
</tpc:callEventNotification> 
