----------------------------------------------- 2019-01-09 22:50:24.431643
UDP message sent (692 bytes):

INVITE sip:+16307551540@172.22.43.180:7979;user=phone SIP/2.0
Via: SIP/2.0/UDP 172.22.23.173:9090;branch=z9hG4bK-12266-1-0
From: test_artifacts <sip:+14044559111@172.22.23.173:9090;user=phone>;tag=12266SIPpTag001
To: +16307551540 <sip:+16307551540@172.22.43.180:7979;user=phone>
Call-ID: 1-12266@172.22.23.173
CSeq: 1 INVITE
Contact: <sip:+14044559111@172.22.23.173:9090>
P-Asserted-Identity: "PAI" <sip:+14044559111@172.22.23.173:9090;user=phone>
Max-Forwards: 70
Subject: test_artifacts
Content-Type: application/sdp
Content-Length:   137

v=0
o=user1 53655765 2353687637 IN IP4 172.22.23.173
s=-
c=IN IP4 172.22.23.173
t=0 0
m=audio 6000 RTP/AVP 0
a=rtpmap:0 PCMU/8000

----------------------------------------------- 2019-01-09 22:50:24.436801
UDP message received [486] bytes :

SIP/2.0 302 Moved Temporarily
Via: SIP/2.0/UDP 172.22.23.173:9090;branch=z9hG4bK-12266-1-0
From: test_artifacts <sip:+14044559111@172.22.23.173:9090;user=phone>;tag=12266SIPpTag001
To: +16307551540 <sip:+16307551540@172.22.43.180:7979;user=phone>;tag=SA5ymaXHKGZASAXX
Call-ID: 1-12266@172.22.23.173
P-Asserted-Identity: "PAI" <sip:+14044559111@172.22.23.173:9090;user=phone>
Contact: <sip:+16307551540@172.22.43.180:7979;user=phone;enum=yes>
CSeq: 1 INVITE
Content-Length: 0


----------------------------------------------- 2019-01-09 22:50:24.436927
UDP message sent (432 bytes):

ACK sip:+16307551540@172.22.43.180:7979;user=phone SIP/2.0
Via: SIP/2.0/UDP 172.22.23.173:9090;branch=z9hG4bK-12266-1-0
From: test_artifacts <sip:+14044559111@172.22.23.173:9090;user=phone>;tag=12266SIPpTag001
To: +16307551540 <sip:+16307551540@172.22.43.180:7979;user=phone>;tag=SA5ymaXHKGZASAXX
Call-ID: 1-12266@172.22.23.173
CSeq: 1 ACK
Contact: <sip:14044559111@172.22.23.173:9090>
Max-Forwards: 70
Content-Length: 0


