----------------------------------------------- 2019-01-09 22:50:15.787834
UDP message sent (612 bytes):

INVITE sip:+16307551540@172.22.43.180:7979;user=phone SIP/2.0
Via: SIP/2.0/UDP 172.22.23.173:9090;branch=z9hG4bK-7781-1-0
From: test_artifacts <sip:+19804858072@172.22.23.173:9090;user=phone>;tag=7781SIPpTag001
To: +16307551540 <sip:+16307551540@172.22.43.180:7979;user=phone>
Call-ID: 1-7781@172.22.23.173
CSeq: 1 INVITE
Contact: <sip:+19804858072@172.22.23.173:9090>
Max-Forwards: 70
Subject: test_artifacts
Content-Type: application/sdp
Content-Length:   137

v=0
o=user1 53655765 2353687637 IN IP4 172.22.23.173
s=-
c=IN IP4 172.22.23.173
t=0 0
m=audio 6000 RTP/AVP 0
a=rtpmap:0 PCMU/8000

----------------------------------------------- 2019-01-09 22:50:15.793953
UDP message received [603] bytes :

SIP/2.0 302 Moved Temporarily
Via: SIP/2.0/UDP 172.22.23.173:9090;branch=z9hG4bK-7781-1-0
From: test_artifacts <sip:+19804858072@172.22.23.173:9090;user=phone>;tag=7781SIPpTag001
To: +16307551540 <sip:+16307551540@172.22.43.180:7979;user=phone>;tag=40y65W4SMmXwZ6Zk
Call-ID: 1-7781@172.22.23.173
CSeq: 1 INVITE
History-Info: <sip:+16307551540@t-mobile.com;user=phone;Reason=SIP>;index=1
Contact: <sip:+18005551211@t-mobile.com;user=phone;enum=yes>
History-Info: <sip:+18005551211@t-mobile.com;user=phone;Reason=SIP;cause=486>;index=1.1
P-STI-Header-Info: add=History-Info
Content-Length: 0


----------------------------------------------- 2019-01-09 22:50:15.794077
UDP message sent (429 bytes):

ACK sip:+16307551540@172.22.43.180:7979;user=phone SIP/2.0
Via: SIP/2.0/UDP 172.22.23.173:9090;branch=z9hG4bK-7781-1-0
From: test_artifacts <sip:+19804858072@172.22.23.173:9090;user=phone>;tag=7781SIPpTag001
To: +16307551540 <sip:+16307551540@172.22.43.180:7979;user=phone>;tag=40y65W4SMmXwZ6Zk
Call-ID: 1-7781@172.22.23.173
CSeq: 1 ACK
Contact: <sip:19804858072@172.22.23.173:9090>
Max-Forwards: 70
Content-Length: 0


