SIP/2.0 302 Moved Temporarily
Via: SIP/2.0/UDP SRCIP:SRCPORT;branch=XXXXX
From: test_artifacts <sip:+1212125559000@SRCIP:SRCPORT;user=phone>;tag=YYYYY
To: +16302101978 <sip:+16302101978@DSTIP:DSTPORT;user=phone>;tag=YYYYY
Call-ID ZZZZZ@SRCIP
P-Asserted-Identity: "PAI" <sip:+12125559000@SRCIP:SRCPORT;user=phone>
Contact: <sip:+16302101978@DSTIP:DSTPORT;user=phone;enum=yes>
CSeq: 1 INVITE
Content-Length: 0
