curl -s -i -X POST -H "Content-Type: application/xml" -H "Accept: application/xml" http://172.22.43.39:8080/firstorion.com/msgScreening/v1/screening -d'<?xml version="1.0" encoding="UTF-8"?><tpc:msgEventNotification xmlns:tpc="urn:oma:xml:rest:netapi:msgScreening:1"><callSessionIdentifier>123456-1562354754</callSessionIdentifier><calledParticipant>tel:+16307551549</calledParticipant><callingParticipant>tel:+16304147970</callingParticipant><addressDirection>Called</addressDirection><serviceKey>SMS</serviceKey><flavors><pnb/></flavors></tpc:msgEventNotification>'
HTTP/1.1 400 Bad Request
Date: Fri, 5 Jul 2019 19:25:50 GMT
Content-Type: application/xml
Content-Length: 564

<?xml version="1.0" encoding="UTF-8"?> 
<tpc:msgEventNotification xmlns:tpc="urn:oma:xml:rest:netapi:msgScreening:1"> 
  <callSessionIdentifier>123456-1562354754</callSessionIdentifier>
  <calledParticipant>tel:+16307551549</calledParticipant>
  <callingParticipant>tel:+16304147970</callingParticipant>
  <addressDirection>Called</addressDirection>
  <serviceKey>SMS</serviceKey>
  <action>Continue</action>
  <errorCode>60</errorCode>
  <errorDescription>Subscriber is not registered for the Messaging PNB service</errorDescription>
</tpc:msgEventNotification> 
