curl -s -i -X POST -H "Content-Type: application/xml" -H "Accept: application/xml" http://172.22.43.39:8080/firstorion.com/msgScreening/v1/screening -d'<?xml version="1.0" encoding="UTF-8"?><tpc:msgEventNotification xmlns:tpc="urn:oma:xml:rest:netapi:msgScreening:1"><callSessionIdentifier>123456-1562354754</callSessionIdentifier><calledParticipant>tel:+16307551540</calledParticipant><callingParticipant>tel:+16305551212</callingParticipant><addressDirection>Called</addressDirection><serviceKey>SMS</serviceKey><flavors><pnb/></flavors></tpc:msgEventNotification>'
HTTP/1.1 200 OK
Date: Fri, 5 Jul 2019 19:25:51 GMT
Content-Type: application/xml
Content-Length: 517

<?xml version="1.0" encoding="UTF-8"?> 
<tpc:msgEventNotification xmlns:tpc="urn:oma:xml:rest:netapi:msgScreening:1"> 
  <callSessionIdentifier>123456-1562354754</callSessionIdentifier>
  <calledParticipant>tel:+16307551540</calledParticipant>
  <callingParticipant>tel:+16305551212</callingParticipant>
  <addressDirection>Called</addressDirection>
  <serviceKey>SMS</serviceKey>
  <flavors>
    <pnb/>
  </flavors>
  <action>Reject</action>
  <reasonCode>GlobalOverride:11</reasonCode>
</tpc:msgEventNotification> 
