----------------------------------------------- 2019-07-12 21:43:24.251495
UDP message sent (630 bytes):

INVITE sip:+16302101979@172.22.23.185:6565;user=phone SIP/2.0
Via: SIP/2.0/UDP 172.22.23.173:8085;branch=z9hG4bK-12012-1-0
From: "test_artifacts" <sip:+11212121212@172.22.23.173:8085;user=phone>;tag=12012SIPpTag001
To: +16302101979 <sip:+16302101979@172.22.23.185:6565;user=phone>
Call-ID: 1-12012@172.22.23.173
CSeq: 1 INVITE
Contact: <sip:+11212121212@172.22.23.173:8085>
Privacy: id
Max-Forwards: 70
Subject: test_artifacts
Content-Type: application/sdp
Content-Length:   137

v=0
o=user1 53655765 2353687637 IN IP4 172.22.23.173
s=-
c=IN IP4 172.22.23.173
t=0 0
m=audio 6000 RTP/AVP 0
a=rtpmap:0 PCMU/8000

----------------------------------------------- 2019-07-12 21:43:24.264651
UDP message received [602] bytes :

SIP/2.0 302 Moved Temporarily
Via: SIP/2.0/UDP 172.22.23.173:8085;branch=z9hG4bK-12012-1-0
From: "Scam Likely" <sip:+0000000000@172.22.23.173:8085;user=phone>;tag=12012SIPpTag001
To: +16302101979 <sip:+16302101979@172.22.23.185:6565;user=phone>;tag=yS0aFSkmKGM4z5K0
Call-ID: 1-12012@172.22.23.173
Contact: <sip:+16302101979@172.22.23.185:6565;user=phone;enum=yes>
CSeq: 1 INVITE
P-Asserted-Identity: "Scam Likely" <sip:+0000000000@172.22.23.173:8085;user=phone>
P-STI-Header-Info: add=P-Asserted-Identity
P-STI-Header-Info: modify=From
P-STI-Header-Info: delete=Privacy
Content-Length: 0


----------------------------------------------- 2019-07-12 21:43:24.264774
UDP message sent (432 bytes):

ACK sip:+16302101979@172.22.23.185:6565;user=phone SIP/2.0
Via: SIP/2.0/UDP 172.22.23.173:8085;branch=z9hG4bK-12012-1-0
From: test_artifacts <sip:+11212121212@172.22.23.173:8085;user=phone>;tag=12012SIPpTag001
To: +16302101979 <sip:+16302101979@172.22.23.185:6565;user=phone>;tag=yS0aFSkmKGM4z5K0
Call-ID: 1-12012@172.22.23.173
CSeq: 1 ACK
Contact: <sip:11212121212@172.22.23.173:8085>
Max-Forwards: 70
Content-Length: 0


