----------------------------------------------- 2019-07-12 21:43:15.915820
UDP message sent (650 bytes):

INVITE sip:+16302101978@172.22.23.185:6565;user=phone SIP/2.0
Via: SIP/2.0/UDP 172.22.23.173:8085;branch=z9hG4bK-7676-1-0
Route: <sip:172.22.23.185:6565;lr>
From: "test_artifacts" <sip:+19804858070@172.22.23.173:8085;user=phone>;tag=7676SIPpTag001
To: +16302101978 <sip:+16302101978@172.22.23.185:6565;user=phone>
Call-ID: 1-7676@172.22.23.173
CSeq: 1 INVITE
Contact: <sip:+19804858070@172.22.23.173:8085>
Max-Forwards: 70
Subject: test_artifacts
Content-Type: application/sdp
Content-Length:   137

v=0
o=user1 53655765 2353687637 IN IP4 172.22.23.173
s=-
c=IN IP4 172.22.23.173
t=0 0
m=audio 6000 RTP/AVP 0
a=rtpmap:0 PCMU/8000

----------------------------------------------- 2019-07-12 21:43:15.931777
UDP message received [605] bytes :

SIP/2.0 302 Moved Temporarily
Via: SIP/2.0/UDP 172.22.23.173:8085;branch=z9hG4bK-7676-1-0
From: "test_artifacts" <sip:+19804858070@172.22.23.173:8085;user=phone>;tag=7676SIPpTag001
To: +16302101978 <sip:+16302101978@172.22.23.185:6565;user=phone>;tag=fCkzfH5wZFGGSkzM
Call-ID: 1-7676@172.22.23.173
Contact: <sip:+18005551211@t-mobile.com;user=phone;enum=yes>
CSeq: 1 INVITE
History-Info: <sip:+16302101978@t-mobile.com;user=phone;Reason=SIP>;index=1
History-Info: <sip:+18005551211@t-mobile.com;user=phone;Reason=SIP;cause=486>;index=1.1
P-STI-Header-Info: add=History-Info
Content-Length: 0


----------------------------------------------- 2019-07-12 21:43:15.931972
UDP message sent (429 bytes):

ACK sip:+16302101978@172.22.23.185:6565;user=phone SIP/2.0
Via: SIP/2.0/UDP 172.22.23.173:8085;branch=z9hG4bK-7676-1-0
From: test_artifacts <sip:+19804858070@172.22.23.173:8085;user=phone>;tag=7676SIPpTag001
To: +16302101978 <sip:+16302101978@172.22.23.185:6565;user=phone>;tag=fCkzfH5wZFGGSkzM
Call-ID: 1-7676@172.22.23.173
CSeq: 1 ACK
Contact: <sip:19804858070@172.22.23.173:8085>
Max-Forwards: 70
Content-Length: 0


