curl -s -i -X POST -H "Content-Type: application/xml" -H "Accept: application/xml" http://172.22.43.39:8080/firstorion.com/callScreening/v1/callScreening -d'<?xml version="1.0" encoding="UTF-8"?><tpc:callEventNotification xmlns:tpc="urn:oma:xml:rest:netapi:callScreening:1"><callSessionIdentifier>12345-1562353952</callSessionIdentifier><callingParticipant>tel:+16304147972</callingParticipant><calledParticipant>tel:+16307551540</calledParticipant><addressDirection>Called</addressDirection><flavors><pnb/></flavors></tpc:callEventNotification>'
HTTP/1.1 200 OK
Date: Fri, 5 Jul 2019 19:12:28 GMT
Content-Type: application/xml
Content-Length: 423

<?xml version="1.0" encoding="UTF-8"?> 
<tpc:callEventNotification xmlns:tpc="urn:oma:xml:rest:netapi:callScreening:1"> 
<callSessionIdentifier>12345-1562353952</callSessionIdentifier>
<calledParticipant>tel:+16307551540</calledParticipant>
<callingParticipant>tel:+16304147972</callingParticipant>
<addressDirection>Called</addressDirection>
<action>Reject</action>
<flavors><pnb/></flavors>
</tpc:callEventNotification> 
