curl -s -i -X POST -H "Content-Type: application/xml" -H "Accept: application/xml" http://172.22.43.39:8080/firstorion.com/callScreening/v1/callScreening -d'<?xml version="1.0" encoding="UTF-8"?><tpc:callEventNotification xmlns:tpc="urn:oma:xml:rest:netapi:callScreening:1"><callSessionIdentifier>12345-1562353951</callSessionIdentifier><callingParticipant>tel:+16303060003</callingParticipant><calledParticipant>tel:+16304147970</calledParticipant><addressDirection>Called</addressDirection><flavors><xxx/></flavors></tpc:callEventNotification>'
HTTP/1.1 400 Bad Request
Date: Fri, 5 Jul 2019 19:12:28 GMT
Content-Length: 0

