----------------------------------------------- 2019-12-07 19:01:51.423374
UDP message sent (764 bytes):

INVITE sip:+16302101979@172.22.23.185:6565;user=phone SIP/2.0
Via: SIP/2.0/UDP 172.22.23.173:8085;rport;branch=z9hG4bK-17138-1-0,SIP/2.0/UDP 216.221.155.23:5060;branch=z9hG4bK00B31a54ce54f8561ed;received=216.221.155.22;mav-udp-rport=5060
Route: <sip:172.22.23.185:6565;lr>
From: test_artifacts <sip:+8885551214@172.22.23.173:8085;user=phone>;tag=17138SIPpTag001
To: +16302101979 <sip:+16302101979@172.22.23.185:6565;user=phone>
Call-ID: 1-17138@172.22.23.173
CSeq: 1 INVITE
Contact: <sip:+8885551214@172.22.23.173:8085>
Max-Forwards: 70
Subject: test_artifacts
Content-Type: application/sdp
Content-Length:   137

v=0
o=user1 53655765 2353687637 IN IP4 172.22.23.173
s=-
c=IN IP4 172.22.23.173
t=0 0
m=audio 6000 RTP/AVP 0
a=rtpmap:0 PCMU/8000

----------------------------------------------- 2019-12-07 19:01:51.433626
UDP message received [597] bytes :

SIP/2.0 487 Request Terminated
Via: SIP/2.0/UDP 172.22.23.173:8085;branch=z9hG4bK-17138-1-0;rport=8085
Via: SIP/2.0/UDP 216.221.155.23:5060;branch=z9hG4bK00B31a54ce54f8561ed;received=216.221.155.22;mav-udp-rport=5060
From: test_artifacts <sip:+8885551214@172.22.23.173:8085;user=phone>;tag=17138SIPpTag001
To: +16302101979 <sip:+16302101979@172.22.23.185:6565;user=phone>;tag=kXS5HGZ0XSHKm5Zk
Call-ID: 1-17138@172.22.23.173
CSeq: 1 INVITE
Reason: SIP;cause=486;text="Busy Here"
Contact: <sip:+16302101979@172.22.23.185:6565;user=phone>
P-STI-Header-Info: add=Reason
Content-Length: 0


-----------------------------------------------
Unexpected UDP message received:

SIP/2.0 487 Request Terminated
Via: SIP/2.0/UDP 172.22.23.173:8085;branch=z9hG4bK-17138-1-0;rport=8085
Via: SIP/2.0/UDP 216.221.155.23:5060;branch=z9hG4bK00B31a54ce54f8561ed;received=216.221.155.22;mav-udp-rport=5060
From: test_artifacts <sip:+8885551214@172.22.23.173:8085;user=phone>;tag=17138SIPpTag001
To: +16302101979 <sip:+16302101979@172.22.23.185:6565;user=phone>;tag=kXS5HGZ0XSHKm5Zk
Call-ID: 1-17138@172.22.23.173
CSeq: 1 INVITE
Reason: SIP;cause=486;text="Busy Here"
Contact: <sip:+16302101979@172.22.23.185:6565;user=phone>
P-STI-Header-Info: add=Reason
Content-Length: 0


----------------------------------------------- 2019-12-07 19:01:51.433712
UDP message sent (586 bytes):

ACK sip:+16302101979@172.22.23.185:6565;user=phone SIP/2.0
Via: SIP/2.0/UDP 172.22.23.173:8085;branch=z9hG4bK-17138-1-0;rport=8085, SIP/2.0/UDP 216.221.155.23:5060;branch=z9hG4bK00B31a54ce54f8561ed;received=216.221.155.22;mav-udp-rport=5060
From: test_artifacts <sip:+8885551214@172.22.23.173:8085;user=phone>;tag=17138SIPpTag001
To: +16302101979 <sip:+16302101979@172.22.23.185:6565;user=phone>;tag=kXS5HGZ0XSHKm5Zk
Call-ID: 1-17138@172.22.23.173
CSeq: 1 ACK
Contact: <sip:sipp@172.22.23.173:8085;transport=UDP>
Max-Forwards: 70
Subject: Performance Test
Content-Length: 0


