----------------------------------------------- 2018-09-06 20:34:56.967611
UDP message sent (628 bytes):

INVITE sip:+16302101534@172.22.43.180:7979;user=phone SIP/2.0
Via: SIP/2.0/UDP 172.22.23.173:9090;branch=z9hG4bK-12065-1-0
From: test_artifacts <sip:+11212121212@172.22.23.173:9090;user=phone>;tag=12065SIPpTag001
To: +16302101534 <sip:+16302101534@172.22.43.180:7979;user=phone>
Call-ID: 1-12065@172.22.23.173
CSeq: 1 INVITE
Contact: <sip:+11212121212@172.22.23.173:9090>
Privacy: id
Max-Forwards: 70
Subject: test_artifacts
Content-Type: application/sdp
Content-Length:   137

v=0
o=user1 53655765 2353687637 IN IP4 172.22.23.173
s=-
c=IN IP4 172.22.23.173
t=0 0
m=audio 6000 RTP/AVP 0
a=rtpmap:0 PCMU/8000

----------------------------------------------- 2018-09-06 20:34:56.977462
UDP message received [472] bytes :

SIP/2.0 487 Request Terminated
Via: SIP/2.0/UDP 172.22.23.173:9090;branch=z9hG4bK-12065-1-0
From: test_artifacts <sip:+11212121212@172.22.23.173:9090;user=phone>;tag=12065SIPpTag001
To: +16302101534 <sip:+16302101534@172.22.43.180:7979;user=phone>;tag=6i6ka0kfKc4Cf5Xf
Call-ID: 1-12065@172.22.23.173
CSeq: 1 INVITE
Reason: SIP;cause=486;text="Busy Here"
Contact: <sip:+16302101534@172.22.43.180:7979;user=phone>
P-STI-Header-Info: add=Reason
Content-Length: 0


-----------------------------------------------
Unexpected UDP message received:

SIP/2.0 487 Request Terminated
Via: SIP/2.0/UDP 172.22.23.173:9090;branch=z9hG4bK-12065-1-0
From: test_artifacts <sip:+11212121212@172.22.23.173:9090;user=phone>;tag=12065SIPpTag001
To: +16302101534 <sip:+16302101534@172.22.43.180:7979;user=phone>;tag=6i6ka0kfKc4Cf5Xf
Call-ID: 1-12065@172.22.23.173
CSeq: 1 INVITE
Reason: SIP;cause=486;text="Busy Here"
Contact: <sip:+16302101534@172.22.43.180:7979;user=phone>
P-STI-Header-Info: add=Reason
Content-Length: 0


----------------------------------------------- 2018-09-06 20:34:56.977549
UDP message sent (466 bytes):

ACK sip:+16302101534@172.22.43.180:7979;user=phone SIP/2.0
Via: SIP/2.0/UDP 172.22.23.173:9090;branch=z9hG4bK-12065-1-0
From: test_artifacts <sip:+11212121212@172.22.23.173:9090;user=phone>;tag=12065SIPpTag001
To: +16302101534 <sip:+16302101534@172.22.43.180:7979;user=phone>;tag=6i6ka0kfKc4Cf5Xf
Call-ID: 1-12065@172.22.23.173
CSeq: 1 ACK
Contact: <sip:sipp@172.22.23.173:9090;transport=UDP>
Max-Forwards: 70
Subject: Performance Test
Content-Length: 0


