----------------------------------------------- 2018-09-06 20:34:54.840230
UDP message sent (716 bytes):

INVITE sip:+1740029975181473215@172.22.43.180:7979;user=phone SIP/2.0
Via: SIP/2.0/UDP 172.22.23.173:9090;branch=z9hG4bK-11041-1-0
From: test_artifacts <sip:+16304146970@172.22.23.173:9090;user=phone>;tag=11041SIPpTag001
To: +1740029975181473215 <sip:+1740029975181473215@172.22.43.180:7979;user=phone>
Call-ID: 1-11041@172.22.23.173
CSeq: 1 INVITE
Contact: <sip:+16304146970@172.22.23.173:9090>
P-Asserted-Identity: "PAI" <sip:+16304146970@172.22.23.173:9090;user=phone>
Max-Forwards: 70
Subject: test_artifacts
Content-Type: application/sdp
Content-Length:   137

v=0
o=user1 53655765 2353687637 IN IP4 172.22.23.173
s=-
c=IN IP4 172.22.23.173
t=0 0
m=audio 6000 RTP/AVP 0
a=rtpmap:0 PCMU/8000

----------------------------------------------- 2018-09-06 20:34:54.848755
UDP message received [496] bytes :

SIP/2.0 487 Request Terminated
Via: SIP/2.0/UDP 172.22.23.173:9090;branch=z9hG4bK-11041-1-0
From: test_artifacts <sip:+16304146970@172.22.23.173:9090;user=phone>;tag=11041SIPpTag001
To: +1740029975181473215 <sip:+1740029975181473215@172.22.43.180:7979;user=phone>;tag=MAAazfZzkHHSGf5c
Call-ID: 1-11041@172.22.23.173
CSeq: 1 INVITE
Reason: SIP;cause=403;text="Forbidden"
Contact: <sip:+1740029975181473215@172.22.43.180:7979;user=phone>
P-STI-Header-Info: add=Reason
Content-Length: 0


-----------------------------------------------
Unexpected UDP message received:

SIP/2.0 487 Request Terminated
Via: SIP/2.0/UDP 172.22.23.173:9090;branch=z9hG4bK-11041-1-0
From: test_artifacts <sip:+16304146970@172.22.23.173:9090;user=phone>;tag=11041SIPpTag001
To: +1740029975181473215 <sip:+1740029975181473215@172.22.43.180:7979;user=phone>;tag=MAAazfZzkHHSGf5c
Call-ID: 1-11041@172.22.23.173
CSeq: 1 INVITE
Reason: SIP;cause=403;text="Forbidden"
Contact: <sip:+1740029975181473215@172.22.43.180:7979;user=phone>
P-STI-Header-Info: add=Reason
Content-Length: 0


----------------------------------------------- 2018-09-06 20:34:54.848868
UDP message sent (490 bytes):

ACK sip:+1740029975181473215@172.22.43.180:7979;user=phone SIP/2.0
Via: SIP/2.0/UDP 172.22.23.173:9090;branch=z9hG4bK-11041-1-0
From: test_artifacts <sip:+16304146970@172.22.23.173:9090;user=phone>;tag=11041SIPpTag001
To: +1740029975181473215 <sip:+1740029975181473215@172.22.43.180:7979;user=phone>;tag=MAAazfZzkHHSGf5c
Call-ID: 1-11041@172.22.23.173
CSeq: 1 ACK
Contact: <sip:sipp@172.22.23.173:9090;transport=UDP>
Max-Forwards: 70
Subject: Performance Test
Content-Length: 0


