----------------------------------------------- 2019-07-11 17:32:14.915167
UDP message sent (653 bytes):

INVITE sip:+16307551544@172.22.23.185:6565;user=phone SIP/2.0
Via: SIP/2.0/UDP 172.22.23.173:8085;branch=z9hG4bK-14896-1-0
Route: <sip:172.22.23.185:6565;lr>
From: "test_artifacts" <sip:+11212121212@172.22.23.173:8085;user=phone>;tag=14896SIPpTag001
To: +16307551544 <sip:+16307551544@172.22.23.185:6565;user=phone>
Call-ID: 1-14896@172.22.23.173
CSeq: 1 INVITE
Contact: <sip:+11212121212@172.22.23.173:8085>
Max-Forwards: 70
Subject: test_artifacts
Content-Type: application/sdp
Content-Length:   137

v=0
o=user1 53655765 2353687637 IN IP4 172.22.23.173
s=-
c=IN IP4 172.22.23.173
t=0 0
m=audio 6000 RTP/AVP 0
a=rtpmap:0 PCMU/8000

----------------------------------------------- 2019-07-11 17:32:14.921161
UDP message received [411] bytes :

SIP/2.0 302 Moved Temporarily
Via: SIP/2.0/UDP 172.22.23.173:8085;branch=z9hG4bK-14896-1-0
From: "test_artifacts" <sip:+11212121212@172.22.23.173:8085;user=phone>;tag=14896SIPpTag001
To: +16307551544 <sip:+16307551544@172.22.23.185:6565;user=phone>;tag=A6XSMa0iaWcGCXfX
Call-ID: 1-14896@172.22.23.173
Contact: <sip:+16307551544@172.22.23.185:6565;user=phone;enum=yes>
CSeq: 1 INVITE
Content-Length: 0


----------------------------------------------- 2019-07-11 17:32:14.921302
UDP message sent (432 bytes):

ACK sip:+16307551544@172.22.23.185:6565;user=phone SIP/2.0
Via: SIP/2.0/UDP 172.22.23.173:8085;branch=z9hG4bK-14896-1-0
From: test_artifacts <sip:+11212121212@172.22.23.173:8085;user=phone>;tag=14896SIPpTag001
To: +16307551544 <sip:+16307551544@172.22.23.185:6565;user=phone>;tag=A6XSMa0iaWcGCXfX
Call-ID: 1-14896@172.22.23.173
CSeq: 1 ACK
Contact: <sip:11212121212@172.22.23.173:8085>
Max-Forwards: 70
Content-Length: 0


