SIP/2.0 302 Moved Temporarily
Via: SIP/2.0/UDP SRCIP:SRCPORT;branch=XXXXX
Via: SIP/2.0/UDP SRCIP:SRCPORT;rport;branch=XXXXX
Via: SIP/2.0/UDP SRCIP:SRCPORT;branch=XXXXX;mav-udp-rport=5060
From: test_artifacts <sip:+16303061111@SRCIP:SRCPORT;user=phone>;tag=YYYYY
To: <sip:+18005551211@DSTIP:DSTPORT;user=phone>;tag=YYYYY
Call-ID ZZZZZ@SRCIP
Contact: <sip:+18005551211@DSTIP:DSTPORT;user=phone;enum=yes>
CSeq: 1 INVITE
P-STI-Header-Info: delete=History-Info
Content-Length: 0
