SIP/2.0 487 Request Terminated
Via: SIP/2.0/UDP SRCIP:SRCPORT;branch=XXXXX
From: test_artifacts <sip:+11212121212@SRCIP:SRCPORT;user=phone>;tag=YYYYY
To: +16302101534 <sip:+16302101534@DSTIP:DSTPORT;user=phone>;tag=YYYYY
Call-ID ZZZZZ@SRCIP
CSeq: 1 INVITE
Contact: <sip:+16302101534@DSTIP:DSTPORT;user=phone;enum=yes>
Reason: SIP;cause=486;text="Busy Here"
P-STI-Header-Info: add=Reason
Content-Length: 0
