SIP/2.0 302 Moved Temporarily
Via: SIP/2.0/UDP SRCIP:SRCPORT;branch=XXXXX
From: "Scam Likely" <sip:+0000000000@SRCIP:SRCPORT;user=phone>;tag=YYYYY
To: +16302101979 <sip:+16302101979@DSTIP:DSTPORT;user=phone>;tag=YYYYY
Call-ID ZZZZZ@SRCIP
CSeq: 1 INVITE
Contact: <sip:+16302101979@DSTIP:DSTPORT;user=phone;enum=yes>
P-Asserted-Identity: "Scam Likely" <sip:+0000000000@SRCIP:SRCPORT;user=phone>
P-STI-Header-Info: add=P-Asserted-Identity
P-STI-Header-Info: modify=From
P-STI-Header-Info: delete=Privacy
Content-Length: 0
