----------------------------------------------- 2019-07-11 04:24:49.875623
UDP message sent (719 bytes):

INVITE sip:+16302101534@DSTIP:DSTPORT;user=phone SIP/2.0
Via: SIP/2.0/UDP SRCIP:SRCPORT;branch=z9hG4bK-2260-1-0
Route: <sip:DSTIP:DSTPORT;lr>
From: test_artifacts <sip:+1006304147@SRCIP:SRCPORT;user=phone>;tag=2260SIPpTag001
To: +16302101534 <sip:+16302101534@DSTIP:DSTPORT;user=phone>
Call-ID: 1-2260@SRCIP
CSeq: 1 INVITE
Contact: <sip:+1006304147@SRCIP:SRCPORT>
P-Asserted-Identity: "PAI" <sip:+1006304147@SRCIP:SRCPORT;user=phone>
Max-Forwards: 70
Subject: test_artifacts
Content-Type: application/sdp
Content-Length:   137

v=0
o=user1 53655765 2353687637 IN IP4 SRCIP
s=-
c=IN IP4 SRCIP
t=0 0
m=audio 6000 RTP/AVP 0
a=rtpmap:0 PCMU/8000

----------------------------------------------- 2019-07-11 04:24:49.876946
UDP message received [479] bytes :

SIP/2.0 302 Moved Temporarily
Via: SIP/2.0/UDP SRCIP:SRCPORT;branch=z9hG4bK-2260-1-0
From: test_artifacts <sip:+1006304147@SRCIP:SRCPORT;user=phone>;tag=2260SIPpTag001
To: +16302101534 <sip:+16302101534@DSTIP:DSTPORT;user=phone>;tag=5aiSwWZ55fCa5iCH
Call-ID: 1-2260@SRCIP
P-Asserted-Identity: "PAI" <sip:+1006304147@SRCIP:SRCPORT;user=phone>
Contact: <sip:+16302101534@DSTIP:DSTPORT;user=phone;enum=yes>
CSeq: 1 INVITE
Content-Length: 0


----------------------------------------------- 2019-07-11 04:24:49.877065
UDP message sent (425 bytes):

ACK sip:+16302101534@DSTIP:DSTPORT;user=phone SIP/2.0
Via: SIP/2.0/UDP SRCIP:SRCPORT;branch=z9hG4bK-2260-1-0
From: test_artifacts <sip:+1006304147@SRCIP:SRCPORT;user=phone>;tag=2260SIPpTag001
To: +16302101534 <sip:+16302101534@DSTIP:DSTPORT;user=phone>;tag=5aiSwWZ55fCa5iCH
Call-ID: 1-2260@SRCIP
CSeq: 1 ACK
Contact: <sip:1006304147@SRCIP:SRCPORT>
Max-Forwards: 70
Content-Length: 0


