SIP/2.0 302 Moved Temporarily
Via: SIP/2.0/UDP SRCIP:SRCPORT;branch=XXXXX;rport=SRCPORT
Via: SIP/2.0/UDP 216.221.155.23:5060;branch=XXXXX;mav-udp-rport=5060
From: test_artifacts <sip:+11212121212@SRCIP:SRCPORT;user=phone>;tag=YYYYY
To: +16302101981 <sip:+16302101981@DSTIP:DSTPORT;user=phone>;tag=YYYYY
Call-ID ZZZZZ@SRCIP
Contact: <sip:+16302101981@DSTIP:DSTPORT;user=phone;enum=yes>
CSeq: 1 INVITE
Content-Length: 0
