SIP/2.0 302 Moved Temporarily
Via: SIP/2.0/UDP SRCIP:SRCPORT;branch=XXXXX;rport=SRCPORT
Via: SIP/2.0/UDP 216.221.155.23:5060;branch=XXXXX;mav-udp-rport=5060
From: "CYDLstamp" <sip:+16304148002@SRCIP:SRCPORT;user=phone>;tag=YYYYY
To: +16302101978 <sip:+16302101978@DSTIP:DSTPORT;user=phone>;tag=YYYYY
Call-ID ZZZZZ@SRCIP
CSeq: 1 INVITE
Contact: <sip:+16302101978@msg.pc.t-mobile.com;user=phone;enum=yes>
P-Asserted-Identity: "CYDLstamp" <sip:+16304148002@SRCIP:SRCPORT;user=phone>
P-STI-Header-Info: add=P-Asserted-Identity
P-STI-Header-Info: modify=From
Content-Length: 0
