SIP/2.0 302 Moved Temporarily
Via: SIP/2.0/UDP SRCIP:SRCPORT;branch=XXXXX
From: "Scam Likely" <sip:+0000000000@SRCIP:SRCPORT;user=phone>;tag=YYYYY
To: +16302101978 <sip:+16302101978@DSTIP:DSTPORT;user=phone>;tag=YYYYY
Call-ID ZZZZZ@SRCIP
P-Asserted-Identity: "Scam Likely" <tel:+0000000000>
P-Asserted-Identity: "Scam Likely" <sip:+0000000000@SRCIP:SRCPORT;user=phone>
Contact: <sip:+16302101978@msg.pc.t-mobile.com;user=phone;enum=yes>
CSeq: 1 INVITE
P-STI-Header-Info: modify=P-Asserted-Identity,From
P-STI-Header-Info: delete=Privacy
Content-Length: 0
