----------------------------------------------- 2019-08-06 00:24:11.347611
UDP message sent (644 bytes):

INVITE sip:+16307551540@172.22.43.180:7980;user=phone SIP/2.0
Via: SIP/2.0/UDP SRCIP:9099;branch=z9hG4bK-10328-1-0
From: test_artifacts <sip:+12125559002@SRCIP:9099;verstat=TN-Validation-Passed;user=phone>;tag=10328SIPpTag001
To: +16307551540 <sip:+16307551540@172.22.43.180:7980;user=phone>
Call-ID: 1-10328@SRCIP
CSeq: 1 INVITE
Contact: <sip:+12125559002@SRCIP:9099>
Max-Forwards: 70
Subject: test_artifacts
Content-Type: application/sdp
Content-Length:   137

v=0
o=user1 53655765 2353687637 IN IP4 SRCIP
s=-
c=IN IP4 SRCIP
t=0 0
m=audio 6000 RTP/AVP 0
a=rtpmap:0 PCMU/8000

----------------------------------------------- 2019-08-06 00:24:11.354176
UDP message received [1104] bytes :

SIP/2.0 302 Moved Temporarily
Via: SIP/2.0/UDP SRCIP:9099;branch=z9hG4bK-10328-1-0
From: test_artifacts <sip:+12125559002@SRCIP:9099;user=phone>;tag=10328SIPpTag001
To: +16307551540 <sip:+16307551540@172.22.43.180:7980;user=phone>;tag=HMGZyHm5y5M6Z46S
Call-ID: 1-10328@SRCIP
CSeq: 1 INVITE
P-Attestation-Indicator: A
Identity: eyJhbGciOiJFUzI1NiIsInBwdCI6InNoYWtlbiIsInR5cCI6InBhc3Nwb3J0IiwieDV1IjoiaHR0cHM6Ly8xNzIuMjIuMjMuODcvbmV3LXN0YXItcHViLmNydCJ9.eyJhdHRlc3QiOiJBIiwiZGVzdCI6eyJ0biI6WyIxNjMwNzU1MTU0MCJdfSwiaWF0IjoxNTY1MDUxMTkyLCJvcmlnIjp7InRuIjoiMTIxMjU1NTkwMDIifSwib3JpZ2lkIjoiMDEyMzQ1NjctMDEyMy0wMTIzLTAxMjMtMDEyMzQ1Njc4OWFiIn0.tkXATf3e5vbYmCKO2xZJ2Xve7izaMhwvDuN0fHgci9-E4LS6cbABznonOZyS23EpjycbSciiH4TYVJyDF7f6GQ;info=<https://172.22.23.87/new-star-pub.crt>;alg=ES256;ppt=shaken
Date: Tue, 6 Aug 2019 00:26:32 GMT
Contact: <sip:+16307551540@172.22.43.180:7980;user=phone>
P-Origination-Id: 01234567-0123-0123-0123-0123456789ab
P-STI-Header-Info: add=P-Attestation-Indicator,Identity,Date,P-Origination-Id
P-STI-Header-Info: modify=From
Content-Length: 0


----------------------------------------------- 2019-08-06 00:24:11.354314
UDP message sent (432 bytes):

ACK sip:+16307551540@172.22.43.180:7980;user=phone SIP/2.0
Via: SIP/2.0/UDP SRCIP:9099;branch=z9hG4bK-10328-1-0
From: test_artifacts <sip:+12125559002@SRCIP:9099;user=phone>;tag=10328SIPpTag001
To: +16307551540 <sip:+16307551540@172.22.43.180:7980;user=phone>;tag=HMGZyHm5y5M6Z46S
Call-ID: 1-10328@SRCIP
CSeq: 1 ACK
Contact: <sip:12125559002@SRCIP:9099>
Max-Forwards: 70
Content-Length: 0


