----------------------------------------------- 2019-07-26 05:30:37.680062
UDP message sent (766 bytes):

INVITE sip:+16302101978@172.22.43.180:7979;user=phone SIP/2.0
Via: SIP/2.0/UDP SRCIP:DSTPORT;rport;branch=z9hG4bK-31119-1-0,SIP/2.0/UDP 216.221.155.23:5060;branch=z9hG4bK00B31a54ce54f8561ed;received=216.221.155.22;mav-udp-rport=5060
Route: <sip:172.22.43.180:7979;lr>
From: test_artifacts <sip:+16304147975@SRCIP:DSTPORT;user=phone>;tag=31119SIPpTag001
To: +16302101978 <sip:+16302101978@172.22.43.180:7979;user=phone>
Call-ID: 1-31119@SRCIP
CSeq: 1 INVITE
Contact: <sip:+16304147975@SRCIP:DSTPORT>
Max-Forwards: 70
Subject: test_artifacts
Content-Type: application/sdp
Content-Length:   137

v=0
o=user1 53655765 2353687637 IN IP4 SRCIP
s=-
c=IN IP4 SRCIP
t=0 0
m=audio 6000 RTP/AVP 0
a=rtpmap:0 PCMU/8000

----------------------------------------------- 2019-07-26 05:30:37.689680
UDP message received [695] bytes :

SIP/2.0 302 Moved Temporarily
Via: SIP/2.0/UDP SRCIP:DSTPORT;branch=z9hG4bK-31119-1-0;rport=9090
Via: SIP/2.0/UDP 216.221.155.23:5060;branch=z9hG4bK00B31a54ce54f8561ed;received=216.221.155.22;mav-udp-rport=5060
From: "Scam Likely" <sip:+16304147975@SRCIP:DSTPORT;user=phone>;tag=31119SIPpTag001
To: +16302101978 <sip:+16302101978@172.22.43.180:7979;user=phone>;tag=Mk5G60SG06AKkM4i
Call-ID: 1-31119@SRCIP
CSeq: 1 INVITE
Contact: <sip:+16302101978@172.22.43.180:7979;user=phone;enum=yes>
P-Asserted-Identity: "Scam Likely" <sip:+16304147975@SRCIP:DSTPORT;user=phone>
P-STI-Header-Info: add=P-Asserted-Identity
P-STI-Header-Info: modify=From
Content-Length: 0


----------------------------------------------- 2019-07-26 05:30:37.689830
UDP message sent (443 bytes):

ACK sip:+16302101978@172.22.43.180:7979;user=phone SIP/2.0
Via: SIP/2.0/UDP SRCIP:DSTPORT;branch=z9hG4bK-31119-1-0;rport=9090
From: test_artifacts <sip:+16304147975@SRCIP:DSTPORT;user=phone>;tag=31119SIPpTag001
To: +16302101978 <sip:+16302101978@172.22.43.180:7979;user=phone>;tag=Mk5G60SG06AKkM4i
Call-ID: 1-31119@SRCIP
CSeq: 1 ACK
Contact: <sip:16304147975@SRCIP:DSTPORT>
Max-Forwards: 70
Content-Length: 0


