----------------------------------------------- 2019-07-09 19:22:30.807689
UDP message sent (642 bytes):

INVITE sip:+16302101978@172.22.43.180:7980;user=phone SIP/2.0
Via: SIP/2.0/UDP SRCIP:9099;branch=z9hG4bK-29266-1-0
From: test_artifacts <sip:+9804858070@SRCIP:9099;verstat=TN-Validation-Passed;user=phone>;tag=29266SIPpTag001
To: +16302101978 <sip:+16302101978@172.22.43.180:7980;user=phone>
Call-ID: 1-29266@SRCIP
CSeq: 1 INVITE
Contact: <sip:+9804858070@SRCIP:9099>
Max-Forwards: 70
Subject: test_artifacts
Content-Type: application/sdp
Content-Length:   137

v=0
o=user1 53655765 2353687637 IN IP4 SRCIP
s=-
c=IN IP4 SRCIP
t=0 0
m=audio 6000 RTP/AVP 0
a=rtpmap:0 PCMU/8000

----------------------------------------------- 2019-07-09 19:22:30.814813
UDP message received [1102] bytes :

SIP/2.0 302 Moved Temporarily
Via: SIP/2.0/UDP SRCIP:9099;branch=z9hG4bK-29266-1-0
From: test_artifacts <sip:+9804858070@SRCIP:9099;user=phone>;tag=29266SIPpTag001
To: +16302101978 <sip:+16302101978@172.22.43.180:7980;user=phone>;tag=kGc4kWKA0mcCZXW4
Call-ID: 1-29266@SRCIP
Contact: <sip:+16302101978@172.22.43.180:7980;user=phone>
CSeq: 1 INVITE
P-Attestation-Indicator: A
Identity: eyJhbGciOiJFUzI1NiIsInBwdCI6InNoYWtlbiIsInR5cCI6InBhc3Nwb3J0IiwieDV1IjoiaHR0cHM6Ly8xNzIuMjIuMjMuODcvbmV3LXN0YXItcHViLmNydCJ9.eyJhdHRlc3QiOiJBIiwiZGVzdCI6eyJ0biI6WyIxNjMwMjEwMTk3OCJdfSwiaWF0IjoxNTYyNzAwMjczLCJvcmlnIjp7InRuIjoiOTgwNDg1ODA3MCJ9LCJvcmlnaWQiOiIwMTIzNDU2Ny0wMTIzLTAxMjMtMDEyMy0wMTIzNDU2Nzg5YWIifQ.YS0xSHa1mvIeTKIE1nmB_edqVHlATuP_kyf6-TEpPu4AjXh5Yc3P2ZIK0ljM_L2Y_ZO11XOGgK9Ll2qVYGHvvg;info=<https://172.22.23.87/new-star-pub.crt>;alg=ES256;ppt=shaken
Date: Tue, 9 Jul 2019 19:24:33 GMT
P-Origination-Id: 01234567-0123-0123-0123-0123456789ab
P-STI-Header-Info: add=P-Attestation-Indicator,Identity,Date,P-Origination-Id
P-STI-Header-Info: modify=From
Content-Length: 0


----------------------------------------------- 2019-07-09 19:22:30.814947
UDP message sent (430 bytes):

ACK sip:+16302101978@172.22.43.180:7980;user=phone SIP/2.0
Via: SIP/2.0/UDP SRCIP:9099;branch=z9hG4bK-29266-1-0
From: test_artifacts <sip:+9804858070@SRCIP:9099;user=phone>;tag=29266SIPpTag001
To: +16302101978 <sip:+16302101978@172.22.43.180:7980;user=phone>;tag=kGc4kWKA0mcCZXW4
Call-ID: 1-29266@SRCIP
CSeq: 1 ACK
Contact: <sip:9804858070@SRCIP:9099>
Max-Forwards: 70
Content-Length: 0


