----------------------------------------------- 2019-07-09 19:33:02.748162
UDP message sent (641 bytes):

INVITE sip:+19804858091@172.22.43.180:7980;user=phone SIP/2.0
Via: SIP/2.0/UDP SRCIP:9099;branch=z9hG4bK-4824-1-0
From: test_artifacts <sip:+16304147970@SRCIP:9099;verstat=TN-Validation-Passed;user=phone>;tag=4824SIPpTag001
To: +19804858091 <sip:+19804858091@172.22.43.180:7980;user=phone>
Call-ID: 1-4824@SRCIP
CSeq: 1 INVITE
Contact: <sip:+16304147970@SRCIP:9099>
Max-Forwards: 70
Subject: test_artifacts
Content-Type: application/sdp
Content-Length:   137

v=0
o=user1 53655765 2353687637 IN IP4 SRCIP
s=-
c=IN IP4 SRCIP
t=0 0
m=audio 6000 RTP/AVP 0
a=rtpmap:0 PCMU/8000

----------------------------------------------- 2019-07-09 19:33:02.754812
UDP message received [1101] bytes :

SIP/2.0 302 Moved Temporarily
Via: SIP/2.0/UDP SRCIP:9099;branch=z9hG4bK-4824-1-0
From: test_artifacts <sip:+16304147970@SRCIP:9099;user=phone>;tag=4824SIPpTag001
To: +19804858091 <sip:+19804858091@172.22.43.180:7980;user=phone>;tag=GZa4kmMXCKA4acMm
Call-ID: 1-4824@SRCIP
Contact: <sip:+19804858091@172.22.43.180:7980;user=phone>
CSeq: 1 INVITE
P-Attestation-Indicator: A
Identity: eyJhbGciOiJFUzI1NiIsInBwdCI6InNoYWtlbiIsInR5cCI6InBhc3Nwb3J0IiwieDV1IjoiaHR0cHM6Ly8xNzIuMjIuMjMuODcvbmV3LXN0YXItcHViLmNydCJ9.eyJhdHRlc3QiOiJBIiwiZGVzdCI6eyJ0biI6WyIxOTgwNDg1ODA5MSJdfSwiaWF0IjoxNTYyNzAwOTA1LCJvcmlnIjp7InRuIjoiMTYzMDQxNDc5NzAifSwib3JpZ2lkIjoiMDEyMzQ1NjctMDEyMy0wMTIzLTAxMjMtMDEyMzQ1Njc4OWFiIn0.bqPjliAzaZ1u2pyn8IGAv0s6i_6_Bkri4-76WM5hCqMWCMip78uQeChUfenFTGh0yFyKJTiABDgJ4--MnhuKrA;info=<https://172.22.23.87/new-star-pub.crt>;alg=ES256;ppt=shaken
Date: Tue, 9 Jul 2019 19:35:05 GMT
P-Origination-Id: 01234567-0123-0123-0123-0123456789ab
P-STI-Header-Info: add=P-Attestation-Indicator,Identity,Date,P-Origination-Id
P-STI-Header-Info: modify=From
Content-Length: 0


----------------------------------------------- 2019-07-09 19:33:02.754939
UDP message sent (429 bytes):

ACK sip:+19804858091@172.22.43.180:7980;user=phone SIP/2.0
Via: SIP/2.0/UDP SRCIP:9099;branch=z9hG4bK-4824-1-0
From: test_artifacts <sip:+16304147970@SRCIP:9099;user=phone>;tag=4824SIPpTag001
To: +19804858091 <sip:+19804858091@172.22.43.180:7980;user=phone>;tag=GZa4kmMXCKA4acMm
Call-ID: 1-4824@SRCIP
CSeq: 1 ACK
Contact: <sip:16304147970@SRCIP:9099>
Max-Forwards: 70
Content-Length: 0


