----------------------------------------------- 2019-07-11 21:23:35.767106
UDP message sent (1200 bytes):

INVITE sip:+16302101978@DSTIP:DSTPORT;user=phone SIP/2.0
Via: SIP/2.0/UDP SRCIP:SRCPORT;rport;branch=z9hG4bK-9347-1-0,SIP/2.0/UDP 216.221.155.22:5060;branch=z9hG4bK00B31a54ce54f8561ed;received=216.221.155.24;mav-udp-rport=5060
From: test_artifacts <sip:+11212121218@SRCIP:SRCPORT;user=phone>;tag=9347SIPpTag001
To: +16302101978 <sip:+16302101978@DSTIP:DSTPORT;user=phone>
Call-ID: 1-9347@SRCIP
Identity: eyJhbGciOiJFUzI1NiIsInBwdCI6InNoYWtlbiIsInR5cCI6InBhc3Nwb3J0IiwieDV1IjoiaHR0cHM6Ly8xNzIuMjIuMjMuODcvbmV3LXN0YXItcHViLmNydCJ9.eyJhdHRlc3QiOiJBIiwiZGVzdCI6eyJ0biI6WyIxNjMwMjEwMTk3OCJdfSwiaWF0IjoxNTYyODgwMjAyLCJvcmlnIjp7InRuIjoiMTEyMTIxMjEyMTgifSwib3JpZ2lkIjoiMDEyMzQ1NjctMDEyMy0wMTIzLTAxMjMtMDEyMzQ1Njc4OWFiIn0.q_IbErxTAXyychYqDXVwN5IHNWW2Um9QSRg92jRsKcFVZmTf1MQ2-j1VxwmREDR7IL8GioyVWjdtEV9Q6OeavA;info=<https://172.22.23.87/new-star-pub.crt>;alg=ES256;ppt="shaken"
CSeq: 1 INVITE
Contact: <sip:+11212121218@SRCIP:SRCPORT>
Max-Forwards: 70
Subject: test_artifacts
Content-Type: application/sdp
Content-Length:   137

v=0
o=user1 53655765 2353687637 IN IP4 SRCIP
s=-
c=IN IP4 SRCIP
t=0 0
m=audio 6000 RTP/AVP 0
a=rtpmap:0 PCMU/8000

----------------------------------------------- 2019-07-11 21:23:35.788738
UDP message received [726] bytes :

SIP/2.0 302 Moved Temporarily
Via: SIP/2.0/UDP SRCIP:SRCPORT;branch=z9hG4bK-9347-1-0;rport=SRCPORT
Via: SIP/2.0/UDP 216.221.155.22:5060;branch=z9hG4bK00B31a54ce54f8561ed;received=216.221.155.24;mav-udp-rport=5060
From: "Scam Likely" <sip:+11212121218@SRCIP:SRCPORT;user=phone>;tag=9347SIPpTag001
To: +16302101978 <sip:+16302101978@DSTIP:DSTPORT;user=phone>;tag=k64kiMiwXMfZ5zc0
Call-ID: 1-9347@SRCIP
CSeq: 1 INVITE
Contact: <sip:+16302101978@msg.pc.t-mobile.com;user=phone;enum=yes>
P-Asserted-Identity: "Scam Likely" <sip:+11212121218@SRCIP:SRCPORT;user=phone>
P-STI-Header-Info: add=P-Asserted-Identity
P-STI-Header-Info: modify=From
P-STI-Header-Info: delete=Identity
Content-Length: 0


----------------------------------------------- 2019-07-11 21:23:35.788873
UDP message sent (438 bytes):

ACK sip:+16302101978@DSTIP:DSTPORT;user=phone SIP/2.0
Via: SIP/2.0/UDP SRCIP:SRCPORT;branch=z9hG4bK-9347-1-0;rport=SRCPORT
From: test_artifacts <sip:+11212121218@SRCIP:SRCPORT;user=phone>;tag=9347SIPpTag001
To: +16302101978 <sip:+16302101978@DSTIP:DSTPORT;user=phone>;tag=k64kiMiwXMfZ5zc0
Call-ID: 1-9347@SRCIP
CSeq: 1 ACK
Contact: <sip:11212121218@SRCIP:SRCPORT>
Max-Forwards: 70
Content-Length: 0


