TEST:PAI:A:RURI:B:PI
INFORM01:+16304147970:+16304147970:+15552221212:+15552221213:
INFORM02:+16304147970:+147970:+15552221212:+15552221212:
INFORM03::+16304147970:+15552221212:+15552221212:
INFORM04:+14254423114:+14254423114:+15552221213:+15552221213:
INFORM05:+16304147970:+16304147970:+15552221214:+15552221214:
INFORM06:+16304147970:+16304147970:+15552221213:+15552221213:
INFORM07:+16304147970:+16304147970:+14254423114:+14254423114:
xINFORM08:+16304147970:+16304147970:+15552221214:+15552221214:
xINFORM09:+16304147970:+16304147970:+15552221212:+15552221212:PI
xINFORM10:+16304147970:+16304147970:+155522212121314:+15552221212:
xINFORM11:+16304147970:+16304147970:+1555222:+15552221212:
xINFORM12:+16304147970:+16304147970:+15556666666:+15552221212:
xINFORM13:+16304147970:+16304147970::+155522212121314:
xINFORM14:+16304147970:+16304147970::+1555222:
xINFORM15:+16304147970:+16304147970::+15556666666:
xINFORM16:+16304147970:+16304147970:dan@gmail.com:dan@gmail.com:
xINFORM17:+14254423114:+14254423114:::
xINFORM18:anonymous@anonymous.com:+16304147970:+15552221212:+15552221212:
xINFORM19::anonymous@anonymous.com:+15552221212:+15552221212:
xINFORM20:anonymous@anonymous.com:anonymous@anonymous.com:+15552221212:+15552221212:
xINFORM21:+16304147970:+16304147970:+15552221212:+15552221212:
